#VRML V2.0 utf8 
# 
# Generated by CCVisu, a tool for Co-Change Visualization 
#   and general force-directed graph layout. 
#   Jun 29, 2005 11:00:53 PM 
  
	PROTO TRANSFORM_Sphere [ 
		field SFVec3f translation 0 0 0 
		field SFVec3f scale 1 1 1 
		field SFColor diffuseColor 0.5 0.5 0.5 
		field SFString name "" 
		field SFVec3f textTranslate 0 0 1 
		field SFFloat textSize 14
	] { 
		Transform { 
			translation IS translation 
			children [ 
				Transform { 
					scale IS scale 
					children [ 
						DEF sensor0 TouchSensor {} 
						Shape { 
							geometry Sphere { radius 0.5 } 
							appearance Appearance { 
								material Material { 
									ambientIntensity 0.3 
									diffuseColor IS diffuseColor 
								} 
							} 
						} 
					] 
				} 
				Billboard { 
					axisOfRotation 0 0 0 
					children [ 
						Transform { 
							translation IS textTranslate 
							children [ 
								Shape { geometry DEF label0 Text { string [ "" ] fontStyle FontStyle { family "SANS" size IS textSize } } } 
							] 
						} 
					] 
				} 
				DEF script0 Script { 
					eventIn SFBool isOver 
					eventIn SFBool touchTime 
					eventOut MFString trans 
					field SFBool labelDisplayed FALSE 
					field SFString label IS name 
					url [ "javascript: 
						function isOver(value) { 
							if (value) { 
								trans[0] = label; 
							} else { 
								if (!labelDisplayed) trans[0] = ''; 
							} 
						} 
						function touchTime() { 
							if (labelDisplayed) { 
								trans[0] = ''; 
								labelDisplayed = false; 
							} else { 
								trans[0] = label; 
								labelDisplayed = true; 
							} 
						}" 
					] 
				} 
			] 
		} 
		ROUTE sensor0.isOver TO script0.isOver 
		ROUTE sensor0.touchTime TO script0.touchTime 
		ROUTE script0.trans_changed TO label0.set_string 
	} 

TRANSFORM_Sphere { translation 179 -528 45 scale 3 3 3 diffuseColor 255 255 0 name "misc/cta.el" textTranslate 0 0 4 } 
TRANSFORM_Sphere { translation 180 -528 45 scale 5 5 5 diffuseColor 255 255 0 name "misc/hilit19.el" textTranslate 0 0 6 } 
TRANSFORM_Sphere { translation 572 -414 45 scale 19 19 19 diffuseColor 255 0 255 name "ddm/dependencies" textTranslate 0 0 20 } 
TRANSFORM_Sphere { translation 162 -64 45 scale 46 46 46 diffuseColor 0 255 255 name "doc/todo.txt" textTranslate 0 0 47 } 
TRANSFORM_Sphere { translation 462 -92 45 scale 11 11 11 diffuseColor 0 0 255 name "bdd/bddBdd.cpp" textTranslate 0 0 12 } 
TRANSFORM_Sphere { translation 460 -87 45 scale 9 9 9 diffuseColor 0 0 255 name "bdd/bddBdd.h" textTranslate 0 0 10 } 
TRANSFORM_Sphere { translation 448 -110 45 scale 12 12 12 diffuseColor 0 0 255 name "bdd/bddConfig.cpp" textTranslate 0 0 13 } 
TRANSFORM_Sphere { translation 473 -520 45 scale 11 11 11 diffuseColor 0 255 0 name "ana/anaRegInputErrorState.h" textTranslate 0 0 12 } 
TRANSFORM_Sphere { translation 300 -476 45 scale 7 7 7 diffuseColor 0 255 0 name "ana/anaRegInstrPrintBddEstim.h" textTranslate 0 0 8 } 
TRANSFORM_Sphere { translation 770 -890 45 scale 15 15 15 diffuseColor 0 255 0 name "ana/anaRegState.h" textTranslate 0 0 16 } 
TRANSFORM_Sphere { translation 502 -147 45 scale 17 17 17 diffuseColor 0 0 255 name "bdd/bddAutomaton.h" textTranslate 0 0 18 } 
TRANSFORM_Sphere { translation 278 -484 45 scale 12 12 12 diffuseColor 0 0 255 name "bdd/bddCommunicationGraph.h" textTranslate 0 0 13 } 
TRANSFORM_Sphere { translation 281 -478 45 scale 8 8 8 diffuseColor 0 0 255 name "bdd/bddCommunicationGraphNode.h" textTranslate 0 0 9 } 
TRANSFORM_Sphere { translation 308 -500 45 scale 18 18 18 diffuseColor 255 0 0 name "cta/ctaModule.cpp" textTranslate 0 0 19 } 
TRANSFORM_Sphere { translation 294 -519 45 scale 9 9 9 diffuseColor 255 0 0 name "cta/ctaModule.h" textTranslate 0 0 10 } 
TRANSFORM_Sphere { translation 359 -539 45 scale 15 15 15 diffuseColor 255 0 0 name "cta/ctaYacc.y" textTranslate 0 0 16 } 
TRANSFORM_Sphere { translation 620 -457 45 scale 13 13 13 diffuseColor 255 0 0 name "cta/reprAutomaton.h" textTranslate 0 0 14 } 
TRANSFORM_Sphere { translation 679 -544 45 scale 18 18 18 diffuseColor 255 0 255 name "ddm/ddmAutomaton.h" textTranslate 0 0 19 } 
TRANSFORM_Sphere { translation 463 -349 45 scale 14 14 14 diffuseColor 128 128 128 name "example/bdd/ManufacturingPlant.cta" textTranslate 0 0 15 } 
TRANSFORM_Sphere { translation 313 -552 45 scale 10 10 10 diffuseColor 255 0 0 name "cta/rabbit.cpp" textTranslate 0 0 11 } 
TRANSFORM_Sphere { translation 279 -569 45 scale 15 15 15 diffuseColor 255 0 0 name "cta/utilCmdLineOptions.cpp" textTranslate 0 0 16 } 
TRANSFORM_Sphere { translation 275 -564 45 scale 10 10 10 diffuseColor 255 0 0 name "cta/utilCmdLineOptions.h" textTranslate 0 0 11 } 
TRANSFORM_Sphere { translation 493 -167 45 scale 26 26 26 diffuseColor 0 0 255 name "bdd/bddAutomaton.cpp" textTranslate 0 0 27 } 
TRANSFORM_Sphere { translation 460 -111 45 scale 11 11 11 diffuseColor 0 0 255 name "bdd/bddSymTab.h" textTranslate 0 0 12 } 
TRANSFORM_Sphere { translation 524 -332 45 scale 15 15 15 diffuseColor 0 0 255 name "bdd/dependencies" textTranslate 0 0 16 } 
TRANSFORM_Sphere { translation 549 -390 45 scale 13 13 13 diffuseColor 255 0 0 name "cta/dependencies" textTranslate 0 0 14 } 
TRANSFORM_Sphere { translation 803 -942 45 scale 14 14 14 diffuseColor 0 255 0 name "ana/anaRegReachForward.h" textTranslate 0 0 15 } 
TRANSFORM_Sphere { translation 451 -99 45 scale 6 6 6 diffuseColor 0 0 255 name "bdd/Makefile" textTranslate 0 0 7 } 
TRANSFORM_Sphere { translation 435 -376 45 scale 8 8 8 diffuseColor 255 0 0 name "cta/Makefile" textTranslate 0 0 9 } 
TRANSFORM_Sphere { translation 448 -249 45 scale 6 6 6 diffuseColor 255 0 0 name "cta/utilTime.cpp" textTranslate 0 0 7 } 
TRANSFORM_Sphere { translation 356 -343 45 scale 4 4 4 diffuseColor 255 0 0 name "cta/utilTime.h" textTranslate 0 0 5 } 
TRANSFORM_Sphere { translation 547 -281 45 scale 18 18 18 diffuseColor 255 255 0 name "Makefile" textTranslate 0 0 19 } 
TRANSFORM_Sphere { translation 292 -372 45 scale 11 11 11 diffuseColor 0 255 0 name "ana/anaObject.h" textTranslate 0 0 12 } 
TRANSFORM_Sphere { translation 359 -479 45 scale 13 13 13 diffuseColor 0 255 0 name "ana/anaSecReachability.h" textTranslate 0 0 14 } 
TRANSFORM_Sphere { translation 429 -412 45 scale 11 11 11 diffuseColor 255 0 0 name "cta/ctaAutomaton.cpp" textTranslate 0 0 12 } 
TRANSFORM_Sphere { translation 436 -461 45 scale 5 5 5 diffuseColor 255 0 0 name "cta/ctaAutomaton.h" textTranslate 0 0 6 } 
TRANSFORM_Sphere { translation 418 -473 45 scale 7 7 7 diffuseColor 255 0 0 name "cta/ctaRestNot.h" textTranslate 0 0 8 } 
TRANSFORM_Sphere { translation 453 -451 45 scale 8 8 8 diffuseColor 255 0 0 name "cta/ctaState.cpp" textTranslate 0 0 9 } 
TRANSFORM_Sphere { translation 454 -458 45 scale 6 6 6 diffuseColor 255 0 0 name "cta/ctaState.h" textTranslate 0 0 7 } 
TRANSFORM_Sphere { translation 422 -468 45 scale 5 5 5 diffuseColor 255 0 0 name "cta/ctaSynchronisation.cpp" textTranslate 0 0 6 } 
TRANSFORM_Sphere { translation 413 -465 45 scale 4 4 4 diffuseColor 255 0 0 name "cta/ctaSynchronisation.h" textTranslate 0 0 5 } 
TRANSFORM_Sphere { translation 309 -571 45 scale 10 10 10 diffuseColor 255 0 0 name "cta/ctaSystem.cpp" textTranslate 0 0 11 } 
TRANSFORM_Sphere { translation 424 -476 45 scale 10 10 10 diffuseColor 128 128 128 name "example/bdd/RailRoad.cta" textTranslate 0 0 11 } 
TRANSFORM_Sphere { translation 807 -899 45 scale 10 10 10 diffuseColor 0 255 0 name "ana/anaRegInstr.h" textTranslate 0 0 11 } 
TRANSFORM_Sphere { translation 444 -437 45 scale 6 6 6 diffuseColor 255 0 0 name "cta/ctaConfigState.cpp" textTranslate 0 0 7 } 
TRANSFORM_Sphere { translation 442 -489 45 scale 7 7 7 diffuseColor 255 0 0 name "cta/ctaConfigState.h" textTranslate 0 0 8 } 
TRANSFORM_Sphere { translation 628 -516 45 scale 12 12 12 diffuseColor 255 0 0 name "cta/reprConfig.h" textTranslate 0 0 13 } 
TRANSFORM_Sphere { translation 429 -420 45 scale 4 4 4 diffuseColor 255 0 0 name "cta/ctaRestFalse.h" textTranslate 0 0 5 } 
TRANSFORM_Sphere { translation 833 -871 45 scale 10 10 10 diffuseColor 0 255 0 name "ana/anaBool.h" textTranslate 0 0 11 } 
TRANSFORM_Sphere { translation 841 -874 45 scale 11 11 11 diffuseColor 0 255 0 name "ana/anaBoolEmpty.h" textTranslate 0 0 12 } 
TRANSFORM_Sphere { translation 839 -882 45 scale 11 11 11 diffuseColor 0 255 0 name "ana/anaBoolEqual.h" textTranslate 0 0 12 } 
TRANSFORM_Sphere { translation 844 -880 45 scale 11 11 11 diffuseColor 0 255 0 name "ana/anaBoolInclusion.h" textTranslate 0 0 12 } 
TRANSFORM_Sphere { translation 816 -928 45 scale 13 13 13 diffuseColor 0 255 0 name "ana/anaRegion.h" textTranslate 0 0 14 } 
TRANSFORM_Sphere { translation 436 -486 45 scale 4 4 4 diffuseColor 255 0 0 name "cta/ctaRestRel.h" textTranslate 0 0 5 } 
TRANSFORM_Sphere { translation 436 -487 45 scale 4 4 4 diffuseColor 255 0 0 name "cta/ctaRestriction.cpp" textTranslate 0 0 5 } 
TRANSFORM_Sphere { translation 439 -482 45 scale 5 5 5 diffuseColor 255 0 0 name "cta/ctaSet.h" textTranslate 0 0 6 } 
TRANSFORM_Sphere { translation 462 -486 45 scale 6 6 6 diffuseColor 255 0 0 name "cta/ctaTransition.h" textTranslate 0 0 7 } 
TRANSFORM_Sphere { translation 447 -468 45 scale 5 5 5 diffuseColor 255 0 0 name "cta/ctaConfiguration.h" textTranslate 0 0 6 } 
TRANSFORM_Sphere { translation 452 -472 45 scale 6 6 6 diffuseColor 255 0 0 name "cta/ctaHyTechPrinter.cpp" textTranslate 0 0 7 } 
TRANSFORM_Sphere { translation 440 -478 45 scale 4 4 4 diffuseColor 255 0 0 name "cta/ctaString.h" textTranslate 0 0 5 } 
TRANSFORM_Sphere { translation 788 -934 45 scale 15 15 15 diffuseColor 0 255 0 name "ana/anaRegNot.h" textTranslate 0 0 16 } 
TRANSFORM_Sphere { translation 459 -334 45 scale 3 3 3 diffuseColor 0 255 255 name "doc/codeerzeugung.txt" textTranslate 0 0 4 } 
TRANSFORM_Sphere { translation 467 -125 45 scale 15 15 15 diffuseColor 0 0 255 name "bdd/bddConfig.h" textTranslate 0 0 16 } 
TRANSFORM_Sphere { translation 174 -447 45 scale 6 6 6 diffuseColor 128 128 128 name "example/ddm/GasBurner.cta" textTranslate 0 0 7 } 
TRANSFORM_Sphere { translation 828 -913 45 scale 10 10 10 diffuseColor 0 255 0 name "ana/anaRegDifference.h" textTranslate 0 0 11 } 
TRANSFORM_Sphere { translation 814 -906 45 scale 11 11 11 diffuseColor 0 255 0 name "ana/anaRegInstrAssign.h" textTranslate 0 0 12 } 
TRANSFORM_Sphere { translation 829 -878 45 scale 11 11 11 diffuseColor 0 255 0 name "ana/anaRegInstrIf.h" textTranslate 0 0 12 } 
TRANSFORM_Sphere { translation 804 -893 45 scale 12 12 12 diffuseColor 0 255 0 name "ana/anaRegInstrPrint.h" textTranslate 0 0 13 } 
TRANSFORM_Sphere { translation 832 -891 45 scale 10 10 10 diffuseColor 0 255 0 name "ana/anaRegInstrWhile.h" textTranslate 0 0 11 } 
TRANSFORM_Sphere { translation 816 -937 45 scale 12 12 12 diffuseColor 0 255 0 name "ana/anaRegIntersect.h" textTranslate 0 0 13 } 
TRANSFORM_Sphere { translation 798 -919 45 scale 13 13 13 diffuseColor 0 255 0 name "ana/anaRegLinConstraint.h" textTranslate 0 0 14 } 
TRANSFORM_Sphere { translation 824 -949 45 scale 13 13 13 diffuseColor 0 255 0 name "ana/anaRegPost.h" textTranslate 0 0 14 } 
TRANSFORM_Sphere { translation 817 -955 45 scale 13 13 13 diffuseColor 0 255 0 name "ana/anaRegPre.h" textTranslate 0 0 14 } 
TRANSFORM_Sphere { translation 812 -946 45 scale 14 14 14 diffuseColor 0 255 0 name "ana/anaRegReachBackward.h" textTranslate 0 0 15 } 
TRANSFORM_Sphere { translation 824 -932 45 scale 12 12 12 diffuseColor 0 255 0 name "ana/anaRegSymbol.h" textTranslate 0 0 13 } 
TRANSFORM_Sphere { translation 825 -940 45 scale 12 12 12 diffuseColor 0 255 0 name "ana/anaRegUnion.h" textTranslate 0 0 13 } 
TRANSFORM_Sphere { translation 128 -380 45 scale 4 4 4 diffuseColor 0 255 0 name "ana/anaSecSimulation.h" textTranslate 0 0 5 } 
TRANSFORM_Sphere { translation 357 -545 45 scale 9 9 9 diffuseColor 255 0 0 name "cta/ctaLex.l" textTranslate 0 0 10 } 
TRANSFORM_Sphere { translation 391 -276 45 scale 5 5 5 diffuseColor 0 255 255 name "doc/CodingStandard.txt" textTranslate 0 0 6 } 
TRANSFORM_Sphere { translation 687 -580 45 scale 18 18 18 diffuseColor 255 0 255 name "ddm/ddmAutomaton.cpp" textTranslate 0 0 19 } 
TRANSFORM_Sphere { translation 146 -271 45 scale 9 9 9 diffuseColor 255 255 0 name "sim/fertanl.h" textTranslate 0 0 10 } 
TRANSFORM_Sphere { translation 150 -273 45 scale 3 3 3 diffuseColor 255 255 0 name "sim/io.h" textTranslate 0 0 4 } 
TRANSFORM_Sphere { translation 150 -272 45 scale 5 5 5 diffuseColor 255 255 0 name "sim/pcdriver.h" textTranslate 0 0 6 } 
TRANSFORM_Sphere { translation 242 -273 45 scale 3 3 3 diffuseColor 255 255 0 name "sim/libwsock32.a" textTranslate 0 0 4 } 
TRANSFORM_Sphere { translation 263 -273 45 scale 5 5 5 diffuseColor 255 255 0 name "sim/server.cpp" textTranslate 0 0 6 } 
TRANSFORM_Sphere { translation 535 -245 45 scale 15 15 15 diffuseColor 255 0 255 name "ddm/Makefile" textTranslate 0 0 16 } 
TRANSFORM_Sphere { translation 336 -353 45 scale 9 9 9 diffuseColor 255 255 0 name "1readme.txt" textTranslate 0 0 10 } 
TRANSFORM_Sphere { translation 363 -283 45 scale 4 4 4 diffuseColor 255 255 0 name "cta-db/chkstyle" textTranslate 0 0 5 } 
TRANSFORM_Sphere { translation 364 -284 45 scale 4 4 4 diffuseColor 255 255 0 name "cta-db/emacs-config-file" textTranslate 0 0 5 } 
TRANSFORM_Sphere { translation 363 -284 45 scale 4 4 4 diffuseColor 255 0 255 name "ddm/bzero.c" textTranslate 0 0 5 } 
TRANSFORM_Sphere { translation 363 -286 45 scale 5 5 5 diffuseColor 255 0 255 name "ddm/ddm.proj" textTranslate 0 0 6 } 
TRANSFORM_Sphere { translation 364 -284 45 scale 4 4 4 diffuseColor 255 0 255 name "ddm/ideas" textTranslate 0 0 5 } 
TRANSFORM_Sphere { translation 363 -285 45 scale 4 4 4 diffuseColor 255 0 255 name "ddm/mrk/Makefile" textTranslate 0 0 5 } 
TRANSFORM_Sphere { translation 364 -284 45 scale 4 4 4 diffuseColor 255 0 255 name "ddm/mrk/dependencies" textTranslate 0 0 5 } 
TRANSFORM_Sphere { translation 361 -281 45 scale 5 5 5 diffuseColor 0 255 255 name "doc/doku.txt" textTranslate 0 0 6 } 
TRANSFORM_Sphere { translation 646 -447 45 scale 7 7 7 diffuseColor 128 128 128 name "example/refine/RefineSimple.cta" textTranslate 0 0 8 } 
TRANSFORM_Sphere { translation 438 -454 45 scale 3 3 3 diffuseColor 255 0 0 name "cta/cta-db.proj" textTranslate 0 0 4 } 
TRANSFORM_Sphere { translation 374 -495 45 scale 4 4 4 diffuseColor 255 0 0 name "cta/ctaComponent.cpp" textTranslate 0 0 5 } 
TRANSFORM_Sphere { translation 372 -497 45 scale 4 4 4 diffuseColor 255 0 0 name "cta/ctaComponent.h" textTranslate 0 0 5 } 
TRANSFORM_Sphere { translation 450 -464 45 scale 4 4 4 diffuseColor 255 0 0 name "cta/ctaConfigAnd.h" textTranslate 0 0 5 } 
TRANSFORM_Sphere { translation 433 -445 45 scale 5 5 5 diffuseColor 255 0 0 name "cta/ctaConfigLinRest.h" textTranslate 0 0 6 } 
TRANSFORM_Sphere { translation 450 -464 45 scale 4 4 4 diffuseColor 255 0 0 name "cta/ctaConfigOr.h" textTranslate 0 0 5 } 
TRANSFORM_Sphere { translation 435 -453 45 scale 3 3 3 diffuseColor 255 0 0 name "cta/ctaConfiguration.cpp" textTranslate 0 0 4 } 
TRANSFORM_Sphere { translation 435 -452 45 scale 3 3 3 diffuseColor 255 0 0 name "cta/ctaErrMsg.h" textTranslate 0 0 4 } 
TRANSFORM_Sphere { translation 436 -452 45 scale 3 3 3 diffuseColor 255 0 0 name "cta/ctaExprConst.h" textTranslate 0 0 4 } 
TRANSFORM_Sphere { translation 434 -455 45 scale 3 3 3 diffuseColor 255 0 0 name "cta/ctaExprNegation.h" textTranslate 0 0 4 } 
TRANSFORM_Sphere { translation 434 -453 45 scale 3 3 3 diffuseColor 255 0 0 name "cta/ctaExprPlus.h" textTranslate 0 0 4 } 
TRANSFORM_Sphere { translation 437 -453 45 scale 3 3 3 diffuseColor 255 0 0 name "cta/ctaExprVar.cpp" textTranslate 0 0 4 } 
TRANSFORM_Sphere { translation 449 -462 45 scale 4 4 4 diffuseColor 255 0 0 name "cta/ctaExprVar.h" textTranslate 0 0 5 } 
TRANSFORM_Sphere { translation 448 -463 45 scale 4 4 4 diffuseColor 255 0 0 name "cta/ctaExpression.h" textTranslate 0 0 5 } 
TRANSFORM_Sphere { translation 436 -452 45 scale 3 3 3 diffuseColor 255 0 0 name "cta/ctaGrammar.l" textTranslate 0 0 4 } 
TRANSFORM_Sphere { translation 459 -312 45 scale 6 6 6 diffuseColor 255 0 0 name "cta/ctaGrammar.txt" textTranslate 0 0 7 } 
TRANSFORM_Sphere { translation 434 -453 45 scale 3 3 3 diffuseColor 255 0 0 name "cta/ctaHyTechPrinter.h" textTranslate 0 0 4 } 
TRANSFORM_Sphere { translation 402 -323 45 scale 6 6 6 diffuseColor 255 0 0 name "cta/ctaInstantiation.cpp" textTranslate 0 0 7 } 
TRANSFORM_Sphere { translation 435 -452 45 scale 3 3 3 diffuseColor 255 0 0 name "cta/ctaInstantiation.h" textTranslate 0 0 4 } 
TRANSFORM_Sphere { translation 434 -454 45 scale 3 3 3 diffuseColor 255 0 0 name "cta/ctaMap.h" textTranslate 0 0 4 } 
TRANSFORM_Sphere { translation 434 -454 45 scale 3 3 3 diffuseColor 255 0 0 name "cta/ctaObject.cpp" textTranslate 0 0 4 } 
TRANSFORM_Sphere { translation 438 -454 45 scale 3 3 3 diffuseColor 255 0 0 name "cta/ctaObject.h" textTranslate 0 0 4 } 
TRANSFORM_Sphere { translation 373 -496 45 scale 4 4 4 diffuseColor 255 0 0 name "cta/ctaParser.h" textTranslate 0 0 5 } 
TRANSFORM_Sphere { translation 277 -458 45 scale 4 4 4 diffuseColor 255 0 0 name "cta/ctaRelOp.h" textTranslate 0 0 5 } 
TRANSFORM_Sphere { translation 434 -454 45 scale 3 3 3 diffuseColor 255 0 0 name "cta/ctaRestAnd.h" textTranslate 0 0 4 } 
TRANSFORM_Sphere { translation 436 -452 45 scale 3 3 3 diffuseColor 255 0 0 name "cta/ctaRestOr.h" textTranslate 0 0 4 } 
TRANSFORM_Sphere { translation 436 -452 45 scale 3 3 3 diffuseColor 255 0 0 name "cta/ctaRestRel.cpp" textTranslate 0 0 4 } 
TRANSFORM_Sphere { translation 434 -453 45 scale 3 3 3 diffuseColor 255 0 0 name "cta/ctaRestTrue.h" textTranslate 0 0 4 } 
TRANSFORM_Sphere { translation 437 -452 45 scale 3 3 3 diffuseColor 255 0 0 name "cta/ctaRestriction.h" textTranslate 0 0 4 } 
TRANSFORM_Sphere { translation 438 -453 45 scale 3 3 3 diffuseColor 255 0 0 name "cta/ctaScanner.h" textTranslate 0 0 4 } 
TRANSFORM_Sphere { translation 438 -453 45 scale 3 3 3 diffuseColor 255 0 0 name "cta/ctaSetPointer.h" textTranslate 0 0 4 } 
TRANSFORM_Sphere { translation 437 -452 45 scale 3 3 3 diffuseColor 255 0 0 name "cta/ctaString.cpp" textTranslate 0 0 4 } 
TRANSFORM_Sphere { translation 435 -452 45 scale 3 3 3 diffuseColor 255 0 0 name "cta/ctaStringGNU.h" textTranslate 0 0 4 } 
TRANSFORM_Sphere { translation 435 -451 45 scale 3 3 3 diffuseColor 255 0 0 name "cta/ctaStringSTL.h" textTranslate 0 0 4 } 
TRANSFORM_Sphere { translation 369 -526 45 scale 4 4 4 diffuseColor 255 0 0 name "cta/ctaSystem.h" textTranslate 0 0 5 } 
TRANSFORM_Sphere { translation 470 -485 45 scale 4 4 4 diffuseColor 255 0 0 name "cta/ctaTransition.cpp" textTranslate 0 0 5 } 
TRANSFORM_Sphere { translation 434 -452 45 scale 3 3 3 diffuseColor 255 0 0 name "cta/ctaVectorOfPointer.h" textTranslate 0 0 4 } 
TRANSFORM_Sphere { translation 708 -701 45 scale 9 9 9 diffuseColor 255 0 255 name "ddm/ddmXPoly.h" textTranslate 0 0 10 } 
TRANSFORM_Sphere { translation 721 -671 45 scale 10 10 10 diffuseColor 255 0 255 name "ddm/ddmConfigPair.cpp" textTranslate 0 0 11 } 
TRANSFORM_Sphere { translation 718 -665 45 scale 11 11 11 diffuseColor 255 0 255 name "ddm/ddmConfigPairList.cpp" textTranslate 0 0 12 } 
TRANSFORM_Sphere { translation 701 -706 45 scale 7 7 7 diffuseColor 255 0 255 name "ddm/ddmRegion.h" textTranslate 0 0 8 } 
TRANSFORM_Sphere { translation 698 -690 45 scale 9 9 9 diffuseColor 255 0 255 name "ddm/ddmXPoly.cpp" textTranslate 0 0 10 } 
TRANSFORM_Sphere { translation 711 -740 45 scale 7 7 7 diffuseColor 255 0 255 name "ddm/ddmPoly.cpp" textTranslate 0 0 8 } 
TRANSFORM_Sphere { translation 669 -581 45 scale 14 14 14 diffuseColor 255 0 255 name "ddm/ddmConfig.cpp" textTranslate 0 0 15 } 
TRANSFORM_Sphere { translation 657 -573 45 scale 14 14 14 diffuseColor 255 0 255 name "ddm/ddmConfig.h" textTranslate 0 0 15 } 
TRANSFORM_Sphere { translation 146 -104 45 scale 18 18 18 diffuseColor 0 255 255 name "doc/done.txt" textTranslate 0 0 19 } 
TRANSFORM_Sphere { translation 821 -898 45 scale 9 9 9 diffuseColor 0 255 0 name "ana/anaRegInstrSeq.h" textTranslate 0 0 10 } 
TRANSFORM_Sphere { translation 448 -548 45 scale 3 3 3 diffuseColor 255 0 255 name "ddm/main/main1.cc" textTranslate 0 0 4 } 
TRANSFORM_Sphere { translation 448 -548 45 scale 3 3 3 diffuseColor 255 0 255 name "ddm/main/main10.cc" textTranslate 0 0 4 } 
TRANSFORM_Sphere { translation 448 -547 45 scale 3 3 3 diffuseColor 255 0 255 name "ddm/main/main11.cc" textTranslate 0 0 4 } 
TRANSFORM_Sphere { translation 447 -547 45 scale 3 3 3 diffuseColor 255 0 255 name "ddm/main/main12.cc" textTranslate 0 0 4 } 
TRANSFORM_Sphere { translation 448 -546 45 scale 3 3 3 diffuseColor 255 0 255 name "ddm/main/main2.cc" textTranslate 0 0 4 } 
TRANSFORM_Sphere { translation 449 -548 45 scale 3 3 3 diffuseColor 255 0 255 name "ddm/main/main3.cc" textTranslate 0 0 4 } 
TRANSFORM_Sphere { translation 449 -547 45 scale 3 3 3 diffuseColor 255 0 255 name "ddm/main/main4.cc" textTranslate 0 0 4 } 
TRANSFORM_Sphere { translation 449 -547 45 scale 3 3 3 diffuseColor 255 0 255 name "ddm/main/main5.cc" textTranslate 0 0 4 } 
TRANSFORM_Sphere { translation 448 -547 45 scale 3 3 3 diffuseColor 255 0 255 name "ddm/main/main6.cc" textTranslate 0 0 4 } 
TRANSFORM_Sphere { translation 448 -547 45 scale 3 3 3 diffuseColor 255 0 255 name "ddm/main/main7.cc" textTranslate 0 0 4 } 
TRANSFORM_Sphere { translation 449 -547 45 scale 3 3 3 diffuseColor 255 0 255 name "ddm/main/main8.cc" textTranslate 0 0 4 } 
TRANSFORM_Sphere { translation 447 -547 45 scale 3 3 3 diffuseColor 255 0 255 name "ddm/main/main9.cc" textTranslate 0 0 4 } 
TRANSFORM_Sphere { translation 447 -547 45 scale 3 3 3 diffuseColor 255 0 255 name "ddm/tst/tst1" textTranslate 0 0 4 } 
TRANSFORM_Sphere { translation 448 -546 45 scale 3 3 3 diffuseColor 255 0 255 name "ddm/tst/tst2" textTranslate 0 0 4 } 
TRANSFORM_Sphere { translation 447 -547 45 scale 3 3 3 diffuseColor 255 0 255 name "ddm/tst/tst3" textTranslate 0 0 4 } 
TRANSFORM_Sphere { translation 449 -547 45 scale 3 3 3 diffuseColor 255 0 255 name "ddm/tst/tst3_1" textTranslate 0 0 4 } 
TRANSFORM_Sphere { translation 448 -548 45 scale 3 3 3 diffuseColor 255 0 255 name "ddm/tst/tst3_2" textTranslate 0 0 4 } 
TRANSFORM_Sphere { translation 449 -546 45 scale 3 3 3 diffuseColor 255 0 255 name "ddm/tst/tst4" textTranslate 0 0 4 } 
TRANSFORM_Sphere { translation 447 -546 45 scale 3 3 3 diffuseColor 255 0 255 name "ddm/tst/tst5" textTranslate 0 0 4 } 
TRANSFORM_Sphere { translation 448 -546 45 scale 3 3 3 diffuseColor 255 0 255 name "ddm/tst/tst6" textTranslate 0 0 4 } 
TRANSFORM_Sphere { translation 713 -688 45 scale 8 8 8 diffuseColor 255 0 255 name "ddm/ddmRegion.cpp" textTranslate 0 0 9 } 
TRANSFORM_Sphere { translation 723 -716 45 scale 6 6 6 diffuseColor 255 0 255 name "ddm/ddmState.cpp" textTranslate 0 0 7 } 
TRANSFORM_Sphere { translation 262 -55 45 scale 6 6 6 diffuseColor 255 255 0 name "regression/Railroad-dos.cta.log" textTranslate 0 0 7 } 
TRANSFORM_Sphere { translation 264 -55 45 scale 6 6 6 diffuseColor 255 255 0 name "regression/Signaltest1.cta.log" textTranslate 0 0 7 } 
TRANSFORM_Sphere { translation 263 -56 45 scale 6 6 6 diffuseColor 255 255 0 name "regression/Signaltest2.cta.log" textTranslate 0 0 7 } 
TRANSFORM_Sphere { translation 262 -57 45 scale 6 6 6 diffuseColor 255 255 0 name "regression/Signaltest3.cta.log" textTranslate 0 0 7 } 
TRANSFORM_Sphere { translation 697 -682 45 scale 7 7 7 diffuseColor 255 0 255 name "ddm/ddmAutomatonOstream.cpp" textTranslate 0 0 8 } 
TRANSFORM_Sphere { translation 695 -679 45 scale 7 7 7 diffuseColor 255 0 255 name "ddm/ddmAutomatonOstream.h" textTranslate 0 0 8 } 
TRANSFORM_Sphere { translation 795 -852 45 scale 7 7 7 diffuseColor 0 255 0 name "ana/anaRegInitial.h" textTranslate 0 0 8 } 
TRANSFORM_Sphere { translation 738 -729 45 scale 6 6 6 diffuseColor 255 0 255 name "ddm/ddmConfigPairList.h" textTranslate 0 0 7 } 
TRANSFORM_Sphere { translation 555 -710 45 scale 3 3 3 diffuseColor 255 0 0 name "cta/reprNUMBER.h" textTranslate 0 0 4 } 
TRANSFORM_Sphere { translation 706 -740 45 scale 7 7 7 diffuseColor 255 0 255 name "ddm/ddmConstraints.cpp" textTranslate 0 0 8 } 
TRANSFORM_Sphere { translation 725 -761 45 scale 6 6 6 diffuseColor 255 0 255 name "ddm/ddmDualVec.cpp" textTranslate 0 0 7 } 
TRANSFORM_Sphere { translation 737 -778 45 scale 5 5 5 diffuseColor 255 0 255 name "ddm/ddmDualVec.h" textTranslate 0 0 6 } 
TRANSFORM_Sphere { translation 707 -745 45 scale 6 6 6 diffuseColor 255 0 255 name "ddm/ddmRays.cpp" textTranslate 0 0 7 } 
TRANSFORM_Sphere { translation 376 -658 45 scale 6 6 6 diffuseColor 255 0 255 name "ddm/ddmVecPlain.cpp" textTranslate 0 0 7 } 
TRANSFORM_Sphere { translation 376 -659 45 scale 5 5 5 diffuseColor 255 0 255 name "ddm/ddmVecPlain.h" textTranslate 0 0 6 } 
TRANSFORM_Sphere { translation 153 -563 45 scale 7 7 7 diffuseColor 255 0 255 name "ddm/ddmVecSTL.cpp" textTranslate 0 0 8 } 
TRANSFORM_Sphere { translation 167 -581 45 scale 7 7 7 diffuseColor 255 0 255 name "ddm/ddmVecSTL.h" textTranslate 0 0 8 } 
TRANSFORM_Sphere { translation 686 -641 45 scale 5 5 5 diffuseColor 255 0 0 name "cta/reprAutomatonOstream.h" textTranslate 0 0 6 } 
TRANSFORM_Sphere { translation 714 -742 45 scale 6 6 6 diffuseColor 255 0 255 name "ddm/ddmConstraints.h" textTranslate 0 0 7 } 
TRANSFORM_Sphere { translation 688 -640 45 scale 4 4 4 diffuseColor 255 0 0 name "cta/ctaIntSet.h" textTranslate 0 0 5 } 
TRANSFORM_Sphere { translation 731 -740 45 scale 6 6 6 diffuseColor 255 0 255 name "ddm/ddmTraces.h" textTranslate 0 0 7 } 
TRANSFORM_Sphere { translation 479 -120 45 scale 4 4 4 diffuseColor 255 0 0 name "cta/reprObject.h" textTranslate 0 0 5 } 
TRANSFORM_Sphere { translation 845 -865 45 scale 7 7 7 diffuseColor 0 255 0 name "ana/anaBoolIsReachable.h" textTranslate 0 0 8 } 
TRANSFORM_Sphere { translation 700 -680 45 scale 7 7 7 diffuseColor 255 0 255 name "ddm/ddmConfigPair.h" textTranslate 0 0 8 } 
TRANSFORM_Sphere { translation 392 -481 45 scale 6 6 6 diffuseColor 128 128 128 name "example/bdd/ProductionCell.cta" textTranslate 0 0 7 } 
TRANSFORM_Sphere { translation 395 -485 45 scale 6 6 6 diffuseColor 128 128 128 name "example/bdd/XOR10.cta" textTranslate 0 0 7 } 
TRANSFORM_Sphere { translation 394 -486 45 scale 6 6 6 diffuseColor 128 128 128 name "example/bdd/XOR2.cta" textTranslate 0 0 7 } 
TRANSFORM_Sphere { translation 394 -485 45 scale 6 6 6 diffuseColor 128 128 128 name "example/bdd/XOR3.cta" textTranslate 0 0 7 } 
TRANSFORM_Sphere { translation 393 -486 45 scale 6 6 6 diffuseColor 128 128 128 name "example/bdd/XOR5.cta" textTranslate 0 0 7 } 
TRANSFORM_Sphere { translation 728 -457 45 scale 4 4 4 diffuseColor 128 128 128 name "example/refine/RefineFischer2.cta" textTranslate 0 0 5 } 
TRANSFORM_Sphere { translation 727 -452 45 scale 8 8 8 diffuseColor 128 128 128 name "example/refine/RefineTest.cta" textTranslate 0 0 9 } 
TRANSFORM_Sphere { translation 728 -468 45 scale 5 5 5 diffuseColor 128 128 128 name "example/refine/FischerX.cta" textTranslate 0 0 6 } 
TRANSFORM_Sphere { translation 723 -483 45 scale 9 9 9 diffuseColor 128 128 128 name "example/refine/MutexSync.cta" textTranslate 0 0 10 } 
TRANSFORM_Sphere { translation 715 -637 45 scale 7 7 7 diffuseColor 255 0 255 name "ddm/ddmTransition.cpp" textTranslate 0 0 8 } 
TRANSFORM_Sphere { translation 726 -468 45 scale 5 5 5 diffuseColor 128 128 128 name "example/refine/RefineTestSync.cta" textTranslate 0 0 6 } 
TRANSFORM_Sphere { translation 659 -798 45 scale 6 6 6 diffuseColor 0 255 0 name "ana/anaRegHide.h" textTranslate 0 0 7 } 
TRANSFORM_Sphere { translation 334 -601 45 scale 6 6 6 diffuseColor 0 255 0 name "ana/anaRegInstrPrintAuto.h" textTranslate 0 0 7 } 
TRANSFORM_Sphere { translation 461 -676 45 scale 4 4 4 diffuseColor 0 255 0 name "ana/anaRegInstrPrintFlatModule.h" textTranslate 0 0 5 } 
TRANSFORM_Sphere { translation 721 -583 45 scale 5 5 5 diffuseColor 128 128 128 name "example/refine/RefineVar.cta" textTranslate 0 0 6 } 
TRANSFORM_Sphere { translation 454 -89 45 scale 7 7 7 diffuseColor 0 0 255 name "bdd/bddTransition.h" textTranslate 0 0 8 } 
TRANSFORM_Sphere { translation 374 -258 45 scale 6 6 6 diffuseColor 128 128 128 name "example/refine/ToolCheck/missingSyncProblem.cta" textTranslate 0 0 7 } 
TRANSFORM_Sphere { translation 460 -154 45 scale 5 5 5 diffuseColor 0 255 0 name "ana/anaRegInstrPrintBddGraph.h" textTranslate 0 0 6 } 
TRANSFORM_Sphere { translation 518 -339 45 scale 3 3 3 diffuseColor 0 255 0 name "ana/anaSection.h" textTranslate 0 0 4 } 
TRANSFORM_Sphere { translation 314 -439 45 scale 3 3 3 diffuseColor 255 0 0 name "cta/cvrt2unix.sh" textTranslate 0 0 4 } 
TRANSFORM_Sphere { translation 314 -439 45 scale 3 3 3 diffuseColor 255 0 0 name "cta/testrun" textTranslate 0 0 4 } 
TRANSFORM_Sphere { translation 314 -439 45 scale 3 3 3 diffuseColor 255 0 0 name "cta/unistd.h" textTranslate 0 0 4 } 
TRANSFORM_Sphere { translation 301 -348 45 scale 7 7 7 diffuseColor 0 255 0 name "ana/anaSecRefinement.h" textTranslate 0 0 8 } 
TRANSFORM_Sphere { translation 548 -455 45 scale 6 6 6 diffuseColor 255 0 0 name "cta/utilProgress.h" textTranslate 0 0 7 } 
TRANSFORM_Sphere { translation 168 -448 45 scale 9 9 9 diffuseColor 128 128 128 name "example/ddm/Fischer2.cta" textTranslate 0 0 10 } 
TRANSFORM_Sphere { translation 149 -441 45 scale 7 7 7 diffuseColor 128 128 128 name "example/ddm/Fischer3.cta" textTranslate 0 0 8 } 
TRANSFORM_Sphere { translation 148 -442 45 scale 6 6 6 diffuseColor 128 128 128 name "example/ddm/Fischer4.cta" textTranslate 0 0 7 } 
TRANSFORM_Sphere { translation 156 -440 45 scale 8 8 8 diffuseColor 128 128 128 name "example/ddm/Fischer5.cta" textTranslate 0 0 9 } 
TRANSFORM_Sphere { translation 161 -437 45 scale 4 4 4 diffuseColor 128 128 128 name "example/ddm/Fischer5_1.cta" textTranslate 0 0 5 } 
TRANSFORM_Sphere { translation 151 -437 45 scale 4 4 4 diffuseColor 128 128 128 name "example/ddm/RailRoad.cta" textTranslate 0 0 5 } 
TRANSFORM_Sphere { translation 213 -408 45 scale 4 4 4 diffuseColor 128 128 128 name "example/ddm/SteamBoiler.cta" textTranslate 0 0 5 } 
TRANSFORM_Sphere { translation 151 -438 45 scale 5 5 5 diffuseColor 128 128 128 name "example/ddm/WaterLevel.cta" textTranslate 0 0 6 } 
TRANSFORM_Sphere { translation 155 -437 45 scale 3 3 3 diffuseColor 128 128 128 name "example/ddm/ray-understanding.cta" textTranslate 0 0 4 } 
TRANSFORM_Sphere { translation 339 -569 45 scale 4 4 4 diffuseColor 0 255 0 name "ana/anaRegInstrPrintCompletedModule.h" textTranslate 0 0 5 } 
TRANSFORM_Sphere { translation 266 -55 45 scale 5 5 5 diffuseColor 255 255 0 name "regression/Cycletest1.cta.log" textTranslate 0 0 6 } 
TRANSFORM_Sphere { translation 265 -56 45 scale 5 5 5 diffuseColor 255 255 0 name "regression/Cycletest2.cta.log" textTranslate 0 0 6 } 
TRANSFORM_Sphere { translation 266 -56 45 scale 5 5 5 diffuseColor 255 255 0 name "regression/Cycletest3.cta.log" textTranslate 0 0 6 } 
TRANSFORM_Sphere { translation 265 -57 45 scale 5 5 5 diffuseColor 255 255 0 name "regression/ErrorState.cta.log" textTranslate 0 0 6 } 
TRANSFORM_Sphere { translation 150 -444 45 scale 7 7 7 diffuseColor 128 128 128 name "example/ddm/Fischer6.cta" textTranslate 0 0 8 } 
TRANSFORM_Sphere { translation 634 -471 45 scale 4 4 4 diffuseColor 255 0 0 name "cta/FlexLexer.h" textTranslate 0 0 5 } 
TRANSFORM_Sphere { translation 694 -638 45 scale 3 3 3 diffuseColor 255 0 0 name "cta/Regex.h" textTranslate 0 0 4 } 
TRANSFORM_Sphere { translation 695 -638 45 scale 3 3 3 diffuseColor 255 0 0 name "cta/String.h.orig" textTranslate 0 0 4 } 
TRANSFORM_Sphere { translation 694 -638 45 scale 3 3 3 diffuseColor 255 0 0 name "cta/ctaIntSet.cpp" textTranslate 0 0 4 } 
TRANSFORM_Sphere { translation 740 -718 45 scale 6 6 6 diffuseColor 255 0 255 name "ddm/ddmTransition.h" textTranslate 0 0 7 } 
TRANSFORM_Sphere { translation 297 -565 45 scale 3 3 3 diffuseColor 255 0 0 name "cta/utilGetOpt.c" textTranslate 0 0 4 } 
TRANSFORM_Sphere { translation 297 -565 45 scale 3 3 3 diffuseColor 255 0 0 name "cta/utilGetOpt.h" textTranslate 0 0 4 } 
TRANSFORM_Sphere { translation 658 -399 45 scale 4 4 4 diffuseColor 128 128 128 name "example/refine/FischerImplCheck.cta" textTranslate 0 0 5 } 
TRANSFORM_Sphere { translation 408 -592 45 scale 4 4 4 diffuseColor 0 255 0 name "ana/anaRegInstrPrintRepr.h" textTranslate 0 0 5 } 
TRANSFORM_Sphere { translation 511 -272 45 scale 5 5 5 diffuseColor 0 255 0 name "ana/anaRegInstrPrintReprSize.h" textTranslate 0 0 6 } 
TRANSFORM_Sphere { translation 725 -755 45 scale 6 6 6 diffuseColor 255 0 255 name "ddm/ddmState.h" textTranslate 0 0 7 } 
TRANSFORM_Sphere { translation 471 -103 45 scale 9 9 9 diffuseColor 0 0 255 name "bdd/bddSymTab.cpp" textTranslate 0 0 10 } 
TRANSFORM_Sphere { translation 56 -320 45 scale 6 6 6 diffuseColor 128 128 128 name "example/bdd/AND/AND8.cta" textTranslate 0 0 7 } 
TRANSFORM_Sphere { translation 331 -65 45 scale 4 4 4 diffuseColor 255 255 0 name "regression/ErrorState.cta" textTranslate 0 0 5 } 
TRANSFORM_Sphere { translation 468 -94 45 scale 5 5 5 diffuseColor 0 0 255 name "bdd/bddExpression.cpp" textTranslate 0 0 6 } 
TRANSFORM_Sphere { translation 472 -97 45 scale 5 5 5 diffuseColor 0 0 255 name "bdd/bddExpression.h" textTranslate 0 0 6 } 
TRANSFORM_Sphere { translation 746 -767 45 scale 5 5 5 diffuseColor 255 0 255 name "ddm/ddmIncidences.cpp" textTranslate 0 0 6 } 
TRANSFORM_Sphere { translation 743 -766 45 scale 5 5 5 diffuseColor 255 0 255 name "ddm/ddmIncidences.h" textTranslate 0 0 6 } 
TRANSFORM_Sphere { translation 751 -780 45 scale 4 4 4 diffuseColor 255 0 255 name "ddm/ddmMat.cpp" textTranslate 0 0 5 } 
TRANSFORM_Sphere { translation 749 -780 45 scale 4 4 4 diffuseColor 255 0 255 name "ddm/ddmMat.h" textTranslate 0 0 5 } 
TRANSFORM_Sphere { translation 745 -772 45 scale 3 3 3 diffuseColor 255 0 255 name "ddm/ddmObject.h" textTranslate 0 0 4 } 
TRANSFORM_Sphere { translation 739 -772 45 scale 5 5 5 diffuseColor 255 0 255 name "ddm/ddmPoly.h" textTranslate 0 0 6 } 
TRANSFORM_Sphere { translation 750 -781 45 scale 4 4 4 diffuseColor 255 0 255 name "ddm/ddmRCIPtr.h" textTranslate 0 0 5 } 
TRANSFORM_Sphere { translation 751 -782 45 scale 4 4 4 diffuseColor 255 0 255 name "ddm/ddmRCObject.h" textTranslate 0 0 5 } 
TRANSFORM_Sphere { translation 748 -781 45 scale 4 4 4 diffuseColor 255 0 255 name "ddm/ddmRCRegion.h" textTranslate 0 0 5 } 
TRANSFORM_Sphere { translation 750 -783 45 scale 4 4 4 diffuseColor 255 0 255 name "ddm/ddmRays.h" textTranslate 0 0 5 } 
TRANSFORM_Sphere { translation 742 -768 45 scale 5 5 5 diffuseColor 255 0 255 name "ddm/ddmTraces.cpp" textTranslate 0 0 6 } 
TRANSFORM_Sphere { translation 202 -612 45 scale 6 6 6 diffuseColor 255 0 255 name "ddm/ddmVec.h" textTranslate 0 0 7 } 
TRANSFORM_Sphere { translation 196 -444 45 scale 4 4 4 diffuseColor 128 128 128 name "example/ddm/Fischer5_woReset.cta" textTranslate 0 0 5 } 
TRANSFORM_Sphere { translation 50 -323 45 scale 5 5 5 diffuseColor 128 128 128 name "example/bdd/AND/AND16series.cta" textTranslate 0 0 6 } 
TRANSFORM_Sphere { translation 51 -324 45 scale 5 5 5 diffuseColor 128 128 128 name "example/bdd/AND/AND2.cta" textTranslate 0 0 6 } 
TRANSFORM_Sphere { translation 46 -331 45 scale 3 3 3 diffuseColor 128 128 128 name "example/bdd/AND/AND2rand1.cta" textTranslate 0 0 4 } 
TRANSFORM_Sphere { translation 45 -331 45 scale 3 3 3 diffuseColor 128 128 128 name "example/bdd/AND/AND2rand2.cta" textTranslate 0 0 4 } 
TRANSFORM_Sphere { translation 59 -317 45 scale 6 6 6 diffuseColor 128 128 128 name "example/bdd/AND/AND2series.cta" textTranslate 0 0 7 } 
TRANSFORM_Sphere { translation 46 -331 45 scale 3 3 3 diffuseColor 128 128 128 name "example/bdd/AND/AND3.cta" textTranslate 0 0 4 } 
TRANSFORM_Sphere { translation 46 -331 45 scale 3 3 3 diffuseColor 128 128 128 name "example/bdd/AND/AND3b.cta" textTranslate 0 0 4 } 
TRANSFORM_Sphere { translation 45 -329 45 scale 3 3 3 diffuseColor 128 128 128 name "example/bdd/AND/AND3bcount.cta" textTranslate 0 0 4 } 
TRANSFORM_Sphere { translation 47 -331 45 scale 3 3 3 diffuseColor 128 128 128 name "example/bdd/AND/AND3count.cta" textTranslate 0 0 4 } 
TRANSFORM_Sphere { translation 46 -329 45 scale 3 3 3 diffuseColor 128 128 128 name "example/bdd/AND/AND3flat.cta" textTranslate 0 0 4 } 
TRANSFORM_Sphere { translation 47 -326 45 scale 4 4 4 diffuseColor 128 128 128 name "example/bdd/AND/AND4.cta" textTranslate 0 0 5 } 
TRANSFORM_Sphere { translation 47 -330 45 scale 3 3 3 diffuseColor 128 128 128 name "example/bdd/AND/AND4b.cta" textTranslate 0 0 4 } 
TRANSFORM_Sphere { translation 47 -330 45 scale 3 3 3 diffuseColor 128 128 128 name "example/bdd/AND/AND4bcount.cta" textTranslate 0 0 4 } 
TRANSFORM_Sphere { translation 45 -331 45 scale 3 3 3 diffuseColor 128 128 128 name "example/bdd/AND/AND4count.cta" textTranslate 0 0 4 } 
TRANSFORM_Sphere { translation 45 -331 45 scale 3 3 3 diffuseColor 128 128 128 name "example/bdd/AND/AND4flat.cta" textTranslate 0 0 4 } 
TRANSFORM_Sphere { translation 49 -324 45 scale 4 4 4 diffuseColor 128 128 128 name "example/bdd/AND/AND4series.cta" textTranslate 0 0 5 } 
TRANSFORM_Sphere { translation 46 -330 45 scale 3 3 3 diffuseColor 128 128 128 name "example/bdd/AND/AND5.cta" textTranslate 0 0 4 } 
TRANSFORM_Sphere { translation 47 -330 45 scale 3 3 3 diffuseColor 128 128 128 name "example/bdd/AND/AND5bcount.cta" textTranslate 0 0 4 } 
TRANSFORM_Sphere { translation 46 -332 45 scale 3 3 3 diffuseColor 128 128 128 name "example/bdd/AND/AND5cCount.cta" textTranslate 0 0 4 } 
TRANSFORM_Sphere { translation 47 -331 45 scale 3 3 3 diffuseColor 128 128 128 name "example/bdd/AND/AND5count.cta" textTranslate 0 0 4 } 
TRANSFORM_Sphere { translation 46 -331 45 scale 3 3 3 diffuseColor 128 128 128 name "example/bdd/AND/AND6.cta" textTranslate 0 0 4 } 
TRANSFORM_Sphere { translation 45 -331 45 scale 3 3 3 diffuseColor 128 128 128 name "example/bdd/AND/AND6count.cta" textTranslate 0 0 4 } 
TRANSFORM_Sphere { translation 44 -331 45 scale 3 3 3 diffuseColor 128 128 128 name "example/bdd/AND/AND7.cta" textTranslate 0 0 4 } 
TRANSFORM_Sphere { translation 46 -331 45 scale 3 3 3 diffuseColor 128 128 128 name "example/bdd/AND/AND7count.cta" textTranslate 0 0 4 } 
TRANSFORM_Sphere { translation 47 -331 45 scale 3 3 3 diffuseColor 128 128 128 name "example/bdd/AND/AND8count.cta" textTranslate 0 0 4 } 
TRANSFORM_Sphere { translation 48 -325 45 scale 4 4 4 diffuseColor 128 128 128 name "example/bdd/AND/AND8series.cta" textTranslate 0 0 5 } 
TRANSFORM_Sphere { translation 121 -517 45 scale 3 3 3 diffuseColor 128 128 128 name "example/bdd/TwoState/TwoState10a.cta" textTranslate 0 0 4 } 
TRANSFORM_Sphere { translation 121 -519 45 scale 3 3 3 diffuseColor 128 128 128 name "example/bdd/TwoState/TwoState10b.cta" textTranslate 0 0 4 } 
TRANSFORM_Sphere { translation 122 -519 45 scale 3 3 3 diffuseColor 128 128 128 name "example/bdd/TwoState/TwoState11a.cta" textTranslate 0 0 4 } 
TRANSFORM_Sphere { translation 121 -517 45 scale 3 3 3 diffuseColor 128 128 128 name "example/bdd/TwoState/TwoState11b.cta" textTranslate 0 0 4 } 
TRANSFORM_Sphere { translation 122 -518 45 scale 3 3 3 diffuseColor 128 128 128 name "example/bdd/TwoState/TwoState12a.cta" textTranslate 0 0 4 } 
TRANSFORM_Sphere { translation 124 -499 45 scale 5 5 5 diffuseColor 128 128 128 name "example/bdd/TwoState/TwoState16a.cta" textTranslate 0 0 6 } 
TRANSFORM_Sphere { translation 122 -519 45 scale 3 3 3 diffuseColor 128 128 128 name "example/bdd/TwoState/TwoState32a.cta" textTranslate 0 0 4 } 
TRANSFORM_Sphere { translation 122 -519 45 scale 3 3 3 diffuseColor 128 128 128 name "example/bdd/TwoState/TwoState5a.cta" textTranslate 0 0 4 } 
TRANSFORM_Sphere { translation 122 -517 45 scale 3 3 3 diffuseColor 128 128 128 name "example/bdd/TwoState/TwoState5b.cta" textTranslate 0 0 4 } 
TRANSFORM_Sphere { translation 122 -519 45 scale 3 3 3 diffuseColor 128 128 128 name "example/bdd/TwoState/TwoState64a.cta" textTranslate 0 0 4 } 
TRANSFORM_Sphere { translation 112 -481 45 scale 4 4 4 diffuseColor 128 128 128 name "example/bdd/TwoState/TwoState6a.cta" textTranslate 0 0 5 } 
TRANSFORM_Sphere { translation 121 -518 45 scale 3 3 3 diffuseColor 128 128 128 name "example/bdd/TwoState/TwoState6b.cta" textTranslate 0 0 4 } 
TRANSFORM_Sphere { translation 122 -517 45 scale 3 3 3 diffuseColor 128 128 128 name "example/bdd/TwoState/TwoState7a.cta" textTranslate 0 0 4 } 
TRANSFORM_Sphere { translation 122 -517 45 scale 3 3 3 diffuseColor 128 128 128 name "example/bdd/TwoState/TwoState7b.cta" textTranslate 0 0 4 } 
TRANSFORM_Sphere { translation 126 -520 45 scale 5 5 5 diffuseColor 128 128 128 name "example/bdd/TwoState/TwoState8a.cta" textTranslate 0 0 6 } 
TRANSFORM_Sphere { translation 165 -592 45 scale 4 4 4 diffuseColor 128 128 128 name "example/bdd/TwoState/TwoState8b.cta" textTranslate 0 0 5 } 
TRANSFORM_Sphere { translation 122 -518 45 scale 3 3 3 diffuseColor 128 128 128 name "example/bdd/TwoState/TwoState9a.cta" textTranslate 0 0 4 } 
TRANSFORM_Sphere { translation 122 -518 45 scale 3 3 3 diffuseColor 128 128 128 name "example/bdd/TwoState/TwoState9b.cta" textTranslate 0 0 4 } 
TRANSFORM_Sphere { translation 121 -518 45 scale 3 3 3 diffuseColor 128 128 128 name "example/bdd/TwoState/TwoStateTest.txt" textTranslate 0 0 4 } 
TRANSFORM_Sphere { translation 301 -448 45 scale 6 6 6 diffuseColor 128 128 128 name "example/bdd/CSMA-CD/CSMA.txt" textTranslate 0 0 7 } 
TRANSFORM_Sphere { translation 210 -193 45 scale 4 4 4 diffuseColor 128 128 128 name "example/refine/ToolCheck/test2.cta" textTranslate 0 0 5 } 
TRANSFORM_Sphere { translation 210 -193 45 scale 4 4 4 diffuseColor 128 128 128 name "example/refine/ToolCheck/test4.cta" textTranslate 0 0 5 } 
TRANSFORM_Sphere { translation 228 -381 45 scale 4 4 4 diffuseColor 128 128 128 name "example/refine/ToolCheck/sharedVarProblem.cta" textTranslate 0 0 5 } 
TRANSFORM_Sphere { translation 221 -205 45 scale 4 4 4 diffuseColor 128 128 128 name "example/refine/ToolCheck/test1.cta" textTranslate 0 0 5 } 
TRANSFORM_Sphere { translation 69 -490 45 scale 13 13 13 diffuseColor 128 128 128 name "example/Anlage/devModels/beltSystem2.cta" textTranslate 0 0 14 } 
TRANSFORM_Sphere { translation 147 -442 45 scale 3 3 3 diffuseColor 128 128 128 name "example/ddm/Fischer5_NotTrans.cta" textTranslate 0 0 4 } 
TRANSFORM_Sphere { translation 321 -466 45 scale 4 4 4 diffuseColor 128 128 128 name "example/ddm/driftDeriv/Fischer2.cta" textTranslate 0 0 5 } 
TRANSFORM_Sphere { translation 318 -465 45 scale 5 5 5 diffuseColor 128 128 128 name "example/ddm/driftDeriv/Fischer3.cta" textTranslate 0 0 6 } 
TRANSFORM_Sphere { translation 319 -465 45 scale 5 5 5 diffuseColor 128 128 128 name "example/ddm/driftDeriv/Fischer4.cta" textTranslate 0 0 6 } 
TRANSFORM_Sphere { translation 187 -609 45 scale 3 3 3 diffuseColor 128 128 128 name "example/bdd/TwoState/TwoState128.cta" textTranslate 0 0 4 } 
TRANSFORM_Sphere { translation 186 -609 45 scale 3 3 3 diffuseColor 128 128 128 name "example/bdd/TwoState/TwoState256.cta" textTranslate 0 0 4 } 
TRANSFORM_Sphere { translation 248 -232 45 scale 3 3 3 diffuseColor 128 128 128 name "example/bdd/AND/AND16.cta" textTranslate 0 0 4 } 
TRANSFORM_Sphere { translation 247 -233 45 scale 3 3 3 diffuseColor 128 128 128 name "example/bdd/AND/AND16Full.cta" textTranslate 0 0 4 } 
TRANSFORM_Sphere { translation 248 -233 45 scale 3 3 3 diffuseColor 128 128 128 name "example/bdd/AND/AND16seriesFull.cta" textTranslate 0 0 4 } 
TRANSFORM_Sphere { translation 174 -259 45 scale 4 4 4 diffuseColor 128 128 128 name "example/bdd/AND/AND2Full.cta" textTranslate 0 0 5 } 
TRANSFORM_Sphere { translation 248 -233 45 scale 3 3 3 diffuseColor 128 128 128 name "example/bdd/AND/AND2min.cta" textTranslate 0 0 4 } 
TRANSFORM_Sphere { translation 175 -259 45 scale 4 4 4 diffuseColor 128 128 128 name "example/bdd/AND/AND2seriesFull.cta" textTranslate 0 0 5 } 
TRANSFORM_Sphere { translation 247 -232 45 scale 3 3 3 diffuseColor 128 128 128 name "example/bdd/AND/AND4Full.cta" textTranslate 0 0 4 } 
TRANSFORM_Sphere { translation 247 -233 45 scale 3 3 3 diffuseColor 128 128 128 name "example/bdd/AND/AND4seriesFull.cta" textTranslate 0 0 4 } 
TRANSFORM_Sphere { translation 248 -233 45 scale 3 3 3 diffuseColor 128 128 128 name "example/bdd/AND/AND8Full.cta" textTranslate 0 0 4 } 
TRANSFORM_Sphere { translation 247 -233 45 scale 3 3 3 diffuseColor 128 128 128 name "example/bdd/AND/AND8seriesFull.cta" textTranslate 0 0 4 } 
TRANSFORM_Sphere { translation 193 -534 45 scale 6 6 6 diffuseColor 128 128 128 name "example/bdd/TokenRingFDDI/FDDI.txt" textTranslate 0 0 7 } 
TRANSFORM_Sphere { translation 127 -499 45 scale 3 3 3 diffuseColor 128 128 128 name "example/bdd/TwoState/TwoState4a.cta" textTranslate 0 0 4 } 
TRANSFORM_Sphere { translation 203 -531 45 scale 4 4 4 diffuseColor 128 128 128 name "example/Uppaal/TokenRingFDDI/verificationTimes.txt" textTranslate 0 0 5 } 
TRANSFORM_Sphere { translation 113 -458 45 scale 3 3 3 diffuseColor 128 128 128 name "example/bdd/TwoState/TwoState4aFull.cta" textTranslate 0 0 4 } 
TRANSFORM_Sphere { translation 113 -458 45 scale 3 3 3 diffuseColor 128 128 128 name "example/bdd/TwoState/TwoState6aFull.cta" textTranslate 0 0 4 } 
TRANSFORM_Sphere { translation 113 -458 45 scale 3 3 3 diffuseColor 128 128 128 name "example/bdd/TwoState/TwoState8aFull.cta" textTranslate 0 0 4 } 
TRANSFORM_Sphere { translation 201 -444 45 scale 4 4 4 diffuseColor 128 128 128 name "example/ddm/Fischer5_Clock.cta" textTranslate 0 0 5 } 
TRANSFORM_Sphere { translation 196 -443 45 scale 4 4 4 diffuseColor 128 128 128 name "example/ddm/Fischer5_withStart.cta" textTranslate 0 0 5 } 
TRANSFORM_Sphere { translation 193 -444 45 scale 3 3 3 diffuseColor 128 128 128 name "example/ddm/NuclearReactor.cta" textTranslate 0 0 4 } 
TRANSFORM_Sphere { translation 193 -444 45 scale 3 3 3 diffuseColor 128 128 128 name "example/ddm/NuclearReactor1.cta" textTranslate 0 0 4 } 
TRANSFORM_Sphere { translation 193 -444 45 scale 3 3 3 diffuseColor 128 128 128 name "example/ddm/NuclearReactorMin.cta" textTranslate 0 0 4 } 
TRANSFORM_Sphere { translation 323 -467 45 scale 3 3 3 diffuseColor 128 128 128 name "example/ddm/driftDeriv/Fischer5.cta" textTranslate 0 0 4 } 
TRANSFORM_Sphere { translation 323 -466 45 scale 3 3 3 diffuseColor 128 128 128 name "example/ddm/driftDeriv/Fischer6.cta" textTranslate 0 0 4 } 
TRANSFORM_Sphere { translation 215 -193 45 scale 3 3 3 diffuseColor 128 128 128 name "example/refine/ToolCheck/test3.cta" textTranslate 0 0 4 } 
TRANSFORM_Sphere { translation 215 -193 45 scale 3 3 3 diffuseColor 128 128 128 name "example/refine/ToolCheck/test5.cta" textTranslate 0 0 4 } 
TRANSFORM_Sphere { translation 274 -121 45 scale 5 5 5 diffuseColor 255 255 0 name "regression/createlogfiles" textTranslate 0 0 6 } 
TRANSFORM_Sphere { translation 273 -121 45 scale 5 5 5 diffuseColor 255 255 0 name "regression/regressiontest" textTranslate 0 0 6 } 
TRANSFORM_Sphere { translation 267 -60 45 scale 3 3 3 diffuseColor 255 255 0 name "regression/Cycletest1.cta" textTranslate 0 0 4 } 
TRANSFORM_Sphere { translation 268 -60 45 scale 3 3 3 diffuseColor 255 255 0 name "regression/Cycletest2.cta" textTranslate 0 0 4 } 
TRANSFORM_Sphere { translation 268 -60 45 scale 3 3 3 diffuseColor 255 255 0 name "regression/Cycletest3.cta" textTranslate 0 0 4 } 
TRANSFORM_Sphere { translation 268 -60 45 scale 3 3 3 diffuseColor 255 255 0 name "regression/Railroad-dos.cta" textTranslate 0 0 4 } 
TRANSFORM_Sphere { translation 267 -61 45 scale 3 3 3 diffuseColor 255 255 0 name "regression/Signaltest1.cta" textTranslate 0 0 4 } 
TRANSFORM_Sphere { translation 268 -60 45 scale 3 3 3 diffuseColor 255 255 0 name "regression/Signaltest2.cta" textTranslate 0 0 4 } 
TRANSFORM_Sphere { translation 268 -61 45 scale 3 3 3 diffuseColor 255 255 0 name "regression/Signaltest3.cta" textTranslate 0 0 4 } 
