<?xml version="1.0" standalone="no"?>
 
<!DOCTYPE svg PUBLIC "-//W3C//DTD SVG 1.1//EN"
  "http://www.w3.org/Graphics/SVG/1.1/DTD/svg11.dtd">
 
<!-- Generated by CCVisu, a tool for visual graph clustering 
     and general force-directed graph layout. 
     Dec 12, 2007 1:43:20 AM -->
 
<svg xmlns="http://www.w3.org/2000/svg" version="1.1"
     xmlns:xlink="http://www.w3.org/1999/xlink"
     width="100%" height="100%"
     viewBox="0 0 1000 1000">
 
 <title>Visualization D:\home\db\sfu\ccvisu\dist\examples\simple-3times2_8v.svg</title>
 
 <script><![CDATA[ 
     
  /* 
   * Returns the innermost SVG object that triggered the event 
   * and that has a non-null id attribute. This can be either the event's 
   * target itself, or its parent node, or the first ancestor of the target 
   * with a non-null id. 
   * 
   * Input Parameters: 
   *   evt - The JavaScript object describing the triggering event. 
   * Return Value: 
   *   The target node or first target's ancestor with a non-null id. 
   */ 
  function get_target(evt) { 
    var target = evt.target; 
    while (target && !target.getAttribute('id')) { 
      target = target.parentNode; 
    } 
    return target; 
  }  
     
  /* 
   * Adds or removes a duplicate of the text object that  
   * corresponds to the circle that was clicked on / pointed to: 
   * The circle node is the evt.target. 
   * If the text node is already there, the node gets removed. 
   * Otherwise the text node is cloned. The cloned node's id is changed. 
   * The cloned node is appended to the 'contents' group. 
   * 
   * Input Parameters: 
   *   evt -     JavaScript object describing the triggering event. 
   *   postfix - String to distinguish between click and move. 
   */ 
  function annot_toggle(evt, postfix) { 
    // Retrieve node of object that was clicked on. 
    var target = get_target(evt); 
    var svgdoc = target.ownerDocument; 
      
    // Retrieve annotation node. 
    var annotNode = svgdoc.getElementById(target.getAttribute('id') 
                                          + '__text' + postfix); 
    // Check whether annotation is already set. 
    if (annotNode) { 
      // Remove object's node from its group node. 
      var groupnode = annotNode.parentNode; 
      groupnode.removeChild (annotNode); 
    } else { 
      // Clone the text object and set its attributes. 
      var text = svgdoc.getElementById(target.getAttribute('id') + '__text'); 
      annotNode = text.cloneNode(true); 
      annotNode.setAttribute('id', target.getAttribute('id') + '__text' + postfix); 
      // Retrieve the node for 'contents' group. 
      var contents = svgdoc.getElementById('contents'); 
      // Insert the cloned object into the contents group node. 
      contents.parentNode.appendChild(annotNode); 
      window.status = target.getAttribute('id'); 
    } 
  } 
    
 ]]></script> 

 <defs>  <text id="0__text" x="505" y="506" style="font-size:14pt;fill:#000000"> 0 </text> </defs> 
 <g id="contents"> 
  <circle id="0" cx="485" cy="503" r="17" fill="#00ff00" stroke="black" onmouseover="annot_toggle(evt, '_move')" onmouseout="annot_toggle(evt, '_move')" onclick="annot_toggle(evt, '_click')" /> 
  <text id="0__text_click" x="505" y="506" style="font-size:14pt;fill:#000000"> 0 </text> 
 </g> 
 <defs>  <text id="1__text" x="839" y="194" style="font-size:14pt;fill:#000000"> 1 </text> </defs> 
 <g id="contents"> 
  <circle id="1" cx="827" cy="191" r="9" fill="#00ff00" stroke="black" onmouseover="annot_toggle(evt, '_move')" onmouseout="annot_toggle(evt, '_move')" onclick="annot_toggle(evt, '_click')" /> 
  <text id="1__text_click" x="839" y="194" style="font-size:14pt;fill:#000000"> 1 </text> 
 </g> 
 <defs>  <text id="2__text" x="957" y="551" style="font-size:14pt;fill:#000000"> 2 </text> </defs> 
 <g id="contents"> 
  <circle id="2" cx="945" cy="548" r="9" fill="#00ff00" stroke="black" onmouseover="annot_toggle(evt, '_move')" onmouseout="annot_toggle(evt, '_move')" onclick="annot_toggle(evt, '_click')" /> 
  <text id="2__text_click" x="957" y="551" style="font-size:14pt;fill:#000000"> 2 </text> 
 </g> 
 <defs>  <text id="3__text" x="314" y="82" style="font-size:14pt;fill:#000000"> 3 </text> </defs> 
 <g id="contents"> 
  <circle id="3" cx="302" cy="79" r="9" fill="#00ff00" stroke="black" onmouseover="annot_toggle(evt, '_move')" onmouseout="annot_toggle(evt, '_move')" onclick="annot_toggle(evt, '_click')" /> 
  <text id="3__text_click" x="314" y="82" style="font-size:14pt;fill:#000000"> 3 </text> 
 </g> 
 <defs>  <text id="4__text" x="57" y="362" style="font-size:14pt;fill:#000000"> 4 </text> </defs> 
 <g id="contents"> 
  <circle id="4" cx="45" cy="359" r="9" fill="#00ff00" stroke="black" onmouseover="annot_toggle(evt, '_move')" onmouseout="annot_toggle(evt, '_move')" onclick="annot_toggle(evt, '_click')" /> 
  <text id="4__text_click" x="57" y="362" style="font-size:14pt;fill:#000000"> 4 </text> 
 </g> 
 <defs>  <text id="5__text" x="594" y="958" style="font-size:14pt;fill:#000000"> 5 </text> </defs> 
 <g id="contents"> 
  <circle id="5" cx="582" cy="955" r="9" fill="#00ff00" stroke="black" onmouseover="annot_toggle(evt, '_move')" onmouseout="annot_toggle(evt, '_move')" onclick="annot_toggle(evt, '_click')" /> 
  <text id="5__text_click" x="594" y="958" style="font-size:14pt;fill:#000000"> 5 </text> 
 </g> 
 <defs>  <text id="6__text" x="225" y="880" style="font-size:14pt;fill:#000000"> 6 </text> </defs> 
 <g id="contents"> 
  <circle id="6" cx="213" cy="877" r="9" fill="#00ff00" stroke="black" onmouseover="annot_toggle(evt, '_move')" onmouseout="annot_toggle(evt, '_move')" onclick="annot_toggle(evt, '_click')" /> 
  <text id="6__text_click" x="225" y="880" style="font-size:14pt;fill:#000000"> 6 </text> 
 </g> 
</svg> 
